<?xml version="1.0" encoding="UTF-8" standalone="no"?>
<svg
   xmlns:dc="http://purl.org/dc/elements/1.1/"
   xmlns:cc="http://creativecommons.org/ns#"
   xmlns:rdf="http://www.w3.org/1999/02/22-rdf-syntax-ns#"
   xmlns:svg="http://www.w3.org/2000/svg"
   xmlns="http://www.w3.org/2000/svg"
   xmlns:sodipodi="http://sodipodi.sourceforge.net/DTD/sodipodi-0.dtd"
   xmlns:inkscape="http://www.inkscape.org/namespaces/inkscape"
   width="60.779999mm"
   height="43.779999mm"
   viewBox="0 0 60.779999 43.779999"
   version="1.1"
   id="svg2665"
   sodipodi:docname="bg-2.svg"
   inkscape:version="1.0.1 (3bc2e813f5, 2020-09-07)">
  <sodipodi:namedview
     pagecolor="#ffffff"
     bordercolor="#666666"
     borderopacity="1"
     objecttolerance="10"
     gridtolerance="10"
     guidetolerance="10"
     inkscape:pageopacity="0"
     inkscape:pageshadow="2"
     inkscape:window-width="1920"
     inkscape:window-height="1001"
     id="namedview43"
     showgrid="false"
     inkscape:zoom="2.5080422"
     inkscape:cx="183.05506"
     inkscape:cy="106.14265"
     inkscape:window-x="-9"
     inkscape:window-y="-9"
     inkscape:window-maximized="1"
     inkscape:current-layer="svg2665" />
  <defs
     id="defs2659">
    <clipPath
       clipPathUnits="userSpaceOnUse"
       id="clipPath2102">
      <path
         d="m 1414.96,624.97 h 107.69 V 444.185 h -107.69 z"
         id="path2100" />
    </clipPath>
  </defs>
  <metadata
     id="metadata2662">
    <rdf:RDF>
      <cc:Work
         rdf:about="">
        <dc:format>image/svg+xml</dc:format>
        <dc:type
           rdf:resource="http://purl.org/dc/dcmitype/StillImage" />
        <dc:title />
      </cc:Work>
    </rdf:RDF>
  </metadata>
  <g
     id="g989"
     transform="translate(6.0288206,-2.4262085)">
    <path
       id="path924"
       style="fill:#1a1a1a;fill-opacity:0.0514286;fill-rule:nonzero;stroke:none;stroke-width:1.69512"
       d="m 195.4707,27.441406 c -5.36115,0.07278 -10.45,1.189977 -14.26562,3.392578 L 13.279297,127.25586 c -8.7214104,5.03452 -7.6176039,13.91229 2.453125,19.72656 l 6.013672,3.4707 c 10.069033,5.81597 25.444604,6.45249 34.166015,1.41797 L 206.93359,65.154297 V 28.851562 c -3.71992,-0.984813 -7.65917,-1.461795 -11.46289,-1.410156 z"
       transform="scale(0.26458333)" />
    <path
       id="path996"
       style="fill:#ffc5b3;fill-opacity:1;fill-rule:nonzero;stroke:none;stroke-width:1.69512"
       d="m 172.50586,9.1699219 c -0.76683,0.5276598 -1.52559,1.0675321 -2.25781,1.6289061 -2.49183,1.328977 -3.53467,1.497311 -6.3418,3.019531 -7.86707,2.552857 -19.15331,10.080351 -26.88477,15.189453 C 115.44595,43.267193 81.89447,75.313481 74.810547,76.359375 67.726628,77.403568 44.859688,71.567335 32.119141,70.367188 19.375202,69.168737 21.578072,70.688666 16.40625,75.457031 11.232733,80.227109 7.7558536,85.62883 3.0078125,88.605469 c -4.7463458,2.978332 -3.36097313,7.117185 0.59375,8.580078 -0.8594276,4.854833 -2.2691646,7.300533 -2.34375,13.958983 -0.00509,0.46277 0.03597,0.88264 0.1054687,1.2793 0.8933301,0.13731 1.8456167,0.17981 2.8203126,0.0273 5.4311757,-0.86112 7.4121092,-12.17187 7.4121092,-12.17187 0,0 9.267049,-8.030521 11.740235,-11.195316 2.47149,-3.164795 2.054687,-6.208984 2.054687,-6.208984 0,0 3.912854,2.167811 1.197266,6.208984 -2.715588,4.04287 -12.31481,10.576691 -13.34375,12.222656 -1.030636,1.6477 -3.8281254,16.1934 -3.8281254,16.1934 0,0 0.042951,4.57863 2.2500004,7.14844 1.481537,-0.80688 3.046815,-1.91027 3.636718,-3.20703 1.234051,-2.72407 1.647068,-12.9263 2.882813,-14.57227 1.23405,-1.64766 7.616984,-7.207057 11.324219,-11.210937 3.70554,-4.003884 3.857421,-6.574219 3.857422,-6.574219 3.976759,2.201968 2.204137,7.846114 -0.150391,8.105469 -2.354526,0.257651 -14.0027,11.325367 -14.392578,13.167967 -0.391574,1.8426 0.705078,18.03906 0.705078,18.03906 0,0 -0.268602,4.04822 6.025391,7.4961 6.292298,3.44788 11.230406,4.84312 20.6875,4.64648 5.792239,-0.12034 33.612076,-12.999 47.617187,-24.75976 2.183316,-3.34957 4.173864,-6.52618 5.521484,-8.53321 3.295321,-4.90569 49.693631,-26.938696 65.132811,-36.878902 15.44088,-9.936813 32.88086,-22.285157 32.88086,-22.285157 0,0 3.88132,-1.254827 9.53906,-2.890625 V 9.1699219 Z M 46.244141,97.691406 c 0,0 8.935544,-0.08979 10.308593,12.666014 1.371357,12.75581 -12.59375,19.9375 -12.59375,19.9375 0,0 0.369525,-1.48123 0,-4.23242 -0.589901,-4.4158 -1.785156,-8.07617 -1.785156,-8.07617 0,0 1.198775,-2.81307 4.070313,-9.72071 2.869844,-6.90762 0,-10.574214 0,-10.574214 z"
       transform="scale(0.26458333)" />
    <path
       id="path1000"
       style="fill:#ffa08d;fill-opacity:1;fill-rule:nonzero;stroke:none;stroke-width:1.69512"
       d="m 206.93359,45.191406 c -5.65787,1.635834 -9.54101,2.890625 -9.54101,2.890625 0,0 -17.43803,12.34834 -32.87891,22.285157 -15.43918,9.940202 -61.83723,31.973222 -65.130858,36.878902 -1.347624,2.00703 -3.341811,5.18339 -5.523437,8.53125 0.837392,-0.70347 1.63438,-1.40409 2.363281,-2.0957 5.954974,-5.63968 28.264244,-14.718079 57.654294,-30.998046 14.26955,-7.904361 33.25544,-16.894417 41.59375,-25.748047 2.24434,-1.342537 4.13279,-3.014314 6.25,-3.660156 1.88272,-0.573157 3.61905,-1.221415 5.21289,-1.896485 z"
       transform="scale(0.26458333)" />
    <g
       id="g1002"
       transform="matrix(0.44850143,0,0,-0.44850143,0.018539,24.770826)">
      <path
         d="m 0,0 c 0,0 1.383,-0.731 3.56,1.034 2.176,1.765 7.338,7.186 9.479,8.036 2.142,0.851 6.464,-1.943 6.464,-1.943 0,0 -15.328,-9.22 -17.419,-9.229 C 0.763,-2.106 0,0 0,0"
         style="fill:#ffa08d;fill-opacity:1;fill-rule:nonzero;stroke:none"
         id="path1004" />
    </g>
    <g
       id="g1006"
       transform="matrix(0.44850143,0,0,-0.44850143,11.757572,32.769846)">
      <path
         d="m 0,0 -0.282,-3.8 c 0,0 4.424,1.82 7.094,3.617 6.946,4.677 10.68,12.816 3.574,16.459 C 3.28,19.921 0,0 0,0"
         style="fill:#ffa08d;fill-opacity:1;fill-rule:nonzero;stroke:none"
         id="path1008" />
    </g>
    <g
       id="g1010"
       transform="matrix(0.44850143,0,0,-0.44850143,15.882982,22.857248)">
      <path
         d="m 0,0 c 0.239,-1.028 0.378,-2.095 0.378,-3.196 0,-7.783 -6.309,-14.091 -14.091,-14.091 -4.922,0 -9.249,2.528 -11.769,6.352 1.45,-6.239 7.032,-10.894 13.712,-10.894 7.783,0 14.091,6.308 14.091,14.091 C 2.321,-4.879 1.464,-2.222 0,0"
         style="fill:#d34646;fill-opacity:1;fill-rule:nonzero;stroke:none"
         id="path1012" />
    </g>
    <g
       id="g1014"
       transform="matrix(0.44850143,0,0,-0.44850143,9.732742,30.610534)">
      <path
         d="m 0,0 c 7.782,0 14.091,6.309 14.091,14.091 0,1.101 -0.139,2.168 -0.378,3.196 -2.52,3.824 -6.847,6.353 -11.77,6.353 -7.782,0 -14.089,-6.309 -14.089,-14.091 0,-1.102 0.138,-2.168 0.376,-3.196 C -9.249,2.528 -4.922,0 0,0"
         style="fill:#e55a5a;fill-opacity:1;fill-rule:nonzero;stroke:none"
         id="path1016" />
    </g>
    <g
       id="g1018"
       transform="matrix(0.44850143,0,0,-0.44850143,12.08121,33.296295)">
      <path
         d="m 0,0 c 0.17,3.123 -0.852,4.49 -0.852,4.49 0,0 3.066,5.673 3.066,8.461 0,1.408 -0.736,2.547 -1.596,3.179 0.397,-0.843 0.96,-2.791 -0.274,-5.76 -1.694,-4.075 -2.402,-5.734 -2.402,-5.734 0,0 0.706,-2.16 1.054,-4.765 0.077,-0.572 0.098,-1.047 0.095,-1.428 C -0.393,-1.18 -0.037,-0.681 0,0"
         style="fill:#ffa08d;fill-opacity:1;fill-rule:nonzero;stroke:none"
         id="path1020" />
    </g>
    <g
       id="g1026"
       transform="matrix(0.44850143,0,0,-0.44850143,7.80774,25.309562)">
      <path
         d="M 0,0 C 2.187,2.362 2.275,3.878 2.275,3.878 2.291,3.87 2.303,3.859 2.317,3.851 2.13,4.212 1.878,4.55 1.522,4.836 0.202,5.898 -2.187,3.227 -2.187,3.227 c 0.051,0.044 0.098,0.126 0.142,0.22 -1.925,-2.392 -6.979,-5.865 -7.551,-6.78 -0.308,-0.493 -0.883,-2.941 -1.377,-5.237 0.917,-1.617 1.99,-3.058 3.131,-4.321 0.373,2.389 0.646,5.591 1.161,6.278 C -5.952,-5.642 -2.187,-2.361 0,0"
         style="fill:#ffc5b3;fill-opacity:1;fill-rule:nonzero;stroke:none"
         id="path1028" />
    </g>
    <g
       id="g1030"
       transform="matrix(0.44850143,0,0,-0.44850143,12.358494,26.062017)">
      <path
         d="m 0,0 c -0.844,0.619 -1.806,0.752 -2.312,0.167 -1.022,-1.183 -2.571,-3.28 -2.571,-3.28 0,0 0.753,2.147 -0.505,3.459 -0.731,0.762 -1.776,0.633 -2.278,0.513 -0.096,-0.043 -0.193,-0.074 -0.294,-0.085 -1.389,-0.152 -8.26,-6.681 -8.49,-7.768 -0.118,-0.557 -0.006,-3.331 0.132,-5.908 4.328,-4.035 8.886,-5.82 8.886,-5.82 0,0 4.052,-0.317 5.905,1.035 0.003,0.381 -0.018,0.856 -0.095,1.428 -0.348,2.605 -1.054,4.765 -1.054,4.765 0,0 0.708,1.659 2.402,5.734 C 0.96,-2.791 0.396,-0.843 0,0"
         style="fill:#ffc5b3;fill-opacity:1;fill-rule:nonzero;stroke:none"
         id="path1032" />
    </g>
    <g
       id="g1038"
       transform="matrix(0.44850143,0,0,-0.44850143,8.92026,25.676573)">
      <path
         d="M 0,0 C -0.18,-0.044 -0.294,-0.085 -0.294,-0.085 -0.193,-0.074 -0.096,-0.043 0,0"
         style="fill:#ffa08d;fill-opacity:1;fill-rule:nonzero;stroke:none"
         id="path1040" />
    </g>
    <g
       id="g1042"
       transform="matrix(0.44850143,0,0,-0.44850143,4.980535,29.198881)">
      <path
         d="m 0,0 c 0.23,1.087 7.102,7.616 8.49,7.769 0,0 1.158,2.776 0.131,4.753 -0.015,0.009 -0.026,0.02 -0.042,0.028 0,0 -0.089,-1.516 -2.275,-3.878 C 4.117,6.311 0.352,3.03 -0.377,2.059 -0.893,1.372 -1.165,-1.83 -1.538,-4.219 -0.992,-4.822 -0.433,-5.382 0.132,-5.908 -0.006,-3.331 -0.118,-0.557 0,0"
         style="fill:#ffa08d;fill-opacity:1;fill-rule:nonzero;stroke:none"
         id="path1044" />
    </g>
    <g
       id="g1054"
       transform="matrix(0.44850143,0,0,-0.44850143,9.511127,28.631702)">
      <path
         d="m 0,0 c 0,0 -2.887,-3.47 -4.526,-3.943 -0.216,-2.956 0.578,-6.459 1.336,-7.592 0.22,1.787 0.336,5.633 0.85,6.803 C -1.273,-2.303 0,0 0,0"
         style="fill:#ffa08d;fill-opacity:1;fill-rule:nonzero;stroke:none"
         id="path1056" />
    </g>
    <g
       id="g1058"
       transform="matrix(0.44850143,0,0,-0.44850143,43.366841,3.656231)">
      <path
         d="m 0,0 c 0,0 7.771,-0.591 13.115,-7.697 6.732,-8.95 5.506,-17.739 5.506,-17.739 l 3.162,1.96 c 0,0 -0.246,13.899 -8.182,19.547 -3.402,5.197 -9.86,5.711 -9.86,5.711 z"
         style="fill:#7092d7;fill-opacity:1;fill-rule:nonzero;stroke:none"
         id="path1060" />
    </g>
    <g
       id="g1062"
       transform="matrix(0.44850143,0,0,-0.44850143,22.299974,42.167788)">
      <path
         d="m 0,0 c -0.312,0 -0.62,0.15 -0.808,0.43 -0.298,0.445 -0.18,1.049 0.265,1.348 0.116,0.078 11.637,7.947 16.822,21.577 3.429,9.016 4.712,17.583 5.845,25.141 1.116,7.46 1.999,13.354 4.614,17.053 8.988,12.713 25.028,16.085 25.706,16.222 0.525,0.105 1.038,-0.234 1.145,-0.758 C 53.695,80.486 53.356,79.974 52.83,79.866 52.671,79.834 36.857,76.497 28.325,64.427 25.977,61.104 25.124,55.413 24.045,48.208 22.956,40.932 21.6,31.877 18.095,22.665 12.683,8.438 1.033,0.496 0.541,0.165 0.375,0.053 0.186,0 0,0"
         style="fill:#efe7e1;fill-opacity:1;fill-rule:nonzero;stroke:none"
         id="path1064" />
    </g>
    <g
       id="g1066"
       transform="matrix(0.44850143,0,0,-0.44850143,22.299974,41.949639)">
      <path
         d="m 0,0 c -0.157,0 -0.311,0.074 -0.404,0.215 -0.151,0.222 -0.091,0.523 0.133,0.674 0.116,0.079 11.759,8.021 17.003,21.807 3.449,9.066 4.736,17.659 5.872,25.242 1.107,7.396 1.982,13.239 4.532,16.844 8.875,12.556 25.24,15.993 25.404,16.027 0.265,0.052 0.52,-0.116 0.573,-0.379 0.053,-0.263 -0.117,-0.521 -0.38,-0.574 C 52.573,79.824 36.578,76.456 27.929,64.221 25.514,60.805 24.653,55.063 23.565,47.794 22.479,40.54 21.126,31.514 17.642,22.352 12.283,8.268 0.389,0.162 0.27,0.082 0.187,0.026 0.093,0 0,0"
         style="fill:#e55a5a;fill-opacity:1;fill-rule:nonzero;stroke:none"
         id="path1068" />
    </g>
    <g
       id="g1070"
       transform="matrix(0.44850143,0,0,-0.44850143,49.577564,4.440656)">
      <path
         d="M 0,0 C -0.569,1.885 -2.298,3.223 -4.235,3.455 -8.771,4 -11.32,1.496 -12.439,-0.047 -15.128,-3.754 -12.304,-8.005 -7.922,-7.88 -3.93,-7.766 1.41,-4.66 0,0"
         style="fill:#ffffff;fill-opacity:1;fill-rule:nonzero;stroke:none"
         id="path1072" />
    </g>
  </g>
</svg>
